    <dt>Adolf Hitler</dt>
      <dd></dd>
    <dt>Allied v. Axis Powers</dt>
      <dd></dd>
    <dt>appeasement policy</dt>
      <dd></dd>
    <dt>Atlantic Charter</dt>
      <dd></dd>
    <dt>atomic bomb</dt>
      <dd></dd>
    <dt>Bataan Death March</dt>
      <dd></dd>
    <dt>Battle of Britain</dt>
      <dd></dd>
    <dt>Battle of the Bulge</dt>
      <dd></dd>
    <dt>Benito Mussolini</dt>
      <dd></dd>
    <dt>Blitzkrieg</dt>
      <dd></dd>
    <dt>concentration camps</dt>
      <dd></dd>
    <dt>D-Day Invasion</dt>
      <dd></dd>
    <dt>El Alamein</dt>
      <dd></dd>
    <dt>Fascism</dt>
      <dd></dd>
    <dt>Franklin Roosevelt</dt>
      <dd></dd>
    <dt>General Douglas</dt>
      <dd></dd>
    <dt>General Dwight</dt>
      <dd></dd>
    <dt>Geneva Convention</dt>
      <dd></dd>
    <dt>genocide</dt>
      <dd></dd>
    <dt>Hideki Tojo</dt>
      <dd></dd>
    <dt>Hiroshima/Nagasaki</dt>
      <dd></dd>
    <dt>Hitlers final solution</dt>
      <dd></dd>
    <dt>Holocaust</dt>
      <dd></dd>
    <dt>internment camps</dt>
      <dd></dd>
    <dt>island hopping</dt>
      <dd></dd>
    <dt>Israel</dt>
      <dd></dd>
    <dt>Iwo Jima</dt>
      <dd></dd>
    <dt>Joseph Stalin</dt>
      <dd></dd>
    <dt>kamikaze</dt>
      <dd></dd>
    <dt>Kristallnacht</dt>
      <dd></dd>
    <dt>Lend-Lease Act</dt>
      <dd></dd>
    <dt>Manhattan Project</dt>
      <dd></dd>
    <dt>Marshall Plan</dt>
      <dd></dd>
    <dt>Midway</dt>
      <dd></dd>
    <dt>Navajo code</dt>
      <dd></dd>
    <dt>Nisei</dt>
      <dd></dd>
    <dt>Non-Aggression Pact 48</dt>
      <dd></dd>
    <dt>Nuremberg Trials</dt>
      <dd></dd>
    <dt>Okinawa</dt>
      <dd></dd>
    <dt>Pearl Harbor</dt>
      <dd></dd>
    <dt>Potsdam Conference</dt>
      <dd></dd>
    <dt>propaganda</dt>
      <dd></dd>
    <dt>rationing</dt>
      <dd></dd>
    <dt>Robert</dt>
      <dd></dd>
    <dt>Rosie the Riveter</dt>
      <dd></dd>
    <dt>selective service</dt>
      <dd></dd>
    <dt>Stalingrad</dt>
      <dd></dd>
    <dt>Tuskegee Airmen</dt>
      <dd></dd>
    <dt>United Nations</dt>
      <dd></dd>
    <dt>war</dt>
      <dd></dd>
    <dt>War</dt>
      <dd></dd>
    <dt>Winston</dt>
      <dd></dd>
    <dt>Yalta</dt>
      <dd></dd>
    <dt>Zionist movement</dt>
      <dd></dd>
    Churchill</dt>
      <dd></dd>
    Conference</dt>
      <dd></dd>
    Eisenhower</dt>
      <dd></dd>
    MacArthur</dt>
      <dd></dd>
    Oppenheimer</dt>
      <dd></dd>
    bonds</dt>
      <dd></dd>
    effort</dt>
      <dd></dd>
    talkers</dt>
      <dd></dd>
    totalitarianism</dt>
      <dd></dd>
