\relax 
\providecommand{\transparent@use}[1]{}
\@writefile{toc}{\contentsline {section}{\numberline {1}Purpose}{}}
\@writefile{toc}{\contentsline {section}{\numberline {2}Materials}{}}
\@writefile{toc}{\contentsline {section}{\numberline {3}Procedures}{}}
\@writefile{lof}{\contentsline {figure}{\numberline {1}{\ignorespaces Diagram of experiment\relax }}{}}
\@writefile{lof}{\contentsline {figure}{\numberline {2}{\ignorespaces Raw Data\relax }}{}}
\@writefile{lof}{\contentsline {figure}{\numberline {3}{\ignorespaces Position vs. Time\relax }}{}}
\@writefile{lof}{\contentsline {figure}{\numberline {4}{\ignorespaces Processed Velocity Data\relax }}{}}
\@writefile{toc}{\contentsline {section}{\numberline {4}Significance}{}}
\@writefile{lof}{\contentsline {figure}{\numberline {5}{\ignorespaces Velocity vs. Time\relax }}{}}
\@writefile{toc}{\contentsline {section}{\numberline {5}Conclusion}{}}
