# 15:
  A) Interval(s) at increasing :: (-∞, -2), (1, ∞)
  B) Interval(s) at decreasing :: (-2, 1)
  C) Number(s) at which relative maximum :: 20
  D) Relative maximum :: -2
  E) Number(s) at which relative minimum :: -5
  F) Relative minimum :: 1
# 24:
  even
# 26
  odd

-1 + 6 = m (-2 + 1)
5 = m(-1)
m = -5


