14) 
 * y + 1 = 8(x-4)
 * y = 8x - 33
18) 
 * y + 3 = -2(x)
 * y = -2x -3
22)
 * y = 1/3x
 * y = 1/3x
24)
 * y +4 = -3/5(x - 10)
 * y = -3/5x - 6.4

4x + 6y + 12 = 0
2x + 3y + 6 = 0
2x + 3y = -6
3y = -2 x- 6
y = -2/3 x - 2
m = -2/3
b - -2

y-5 = -1/3 (x+2)
y = -1/3 x + 13 / 3

y = -3/x + 1/12

6) y + 7 = -5 (x + 2)
 * y = -5x -17


8) y - 2 = -3(x + 4)
 * y  = -3x - 10
